# Blender MTL File: 'pefpef.blend'
# Material Count: 2

newmtl Material.008
Ns 225.000000
Ka 1.000000 1.000000 1.000000
Kd 0.800000 0.577801 0.042819
Ks 0.500000 0.500000 0.500000
Ke 0.000000 0.000000 0.000000
Ni 1.450000
d 1.000000
illum 2

newmtl Material.009
Ns 225.000000
Ka 1.000000 1.000000 1.000000
Kd 0.800000 0.159560 0.011797
Ks 0.500000 0.500000 0.500000
Ke 0.000000 0.000000 0.000000
Ni 1.450000
d 1.000000
illum 2
