# Blender MTL File: 'pefpef.blend'
# Material Count: 3

newmtl Material.011
Ns 0.000000
Ka 1.000000 1.000000 1.000000
Kd 0.000000 0.000000 0.000000
Ks 0.500000 0.500000 0.500000
Ke 0.000000 0.000000 0.000000
Ni 1.450000
d 1.000000
illum 2

newmtl Material.019
Ns 225.000000
Ka 1.000000 1.000000 1.000000
Kd 0.013255 0.083868 0.010660
Ks 0.500000 0.500000 0.500000
Ke 0.000000 0.000000 0.000000
Ni 1.450000
d 1.000000
illum 2

newmtl Material.020
Ns 225.000000
Ka 1.000000 1.000000 1.000000
Kd 0.800000 0.450098 0.295266
Ks 0.500000 0.500000 0.500000
Ke 0.000000 0.000000 0.000000
Ni 1.450000
d 1.000000
illum 2
