# Blender v2.81 (sub 16) OBJ File: 'lampe.blend'
# www.blender.org
mtllib lampe.mtl
v 1.494534 0.574387 -5.911437
v 1.401557 -0.574387 -5.543679
v 1.494534 0.574387 5.911437
v 1.401557 -0.574387 5.543679
v -1.494534 0.574387 -5.911437
v -1.401557 -0.574387 -5.543679
v -1.494534 0.574387 5.911437
v -1.401557 -0.574387 5.543679
v -1.494534 -0.574387 -5.911437
v -1.494534 -0.574387 5.911437
v 1.494534 -0.574387 -5.911437
v 1.494534 -0.574387 5.911437
v -1.401557 0.351337 -5.543679
v -1.401557 0.351337 5.543679
v 1.401557 0.351337 -5.543679
v 1.401557 0.351337 5.543679
v -1.280936 -0.055780 -5.543679
v -1.280936 -0.055780 5.543679
v -1.232017 0.156293 -5.543679
v -1.232017 0.156292 5.543679
v -0.835886 0.156293 -5.543679
v -0.835886 0.156292 5.543679
v -0.786968 -0.055780 -5.543679
v -0.786968 -0.055780 5.543679
v -1.143870 -0.225849 -5.543679
v -1.143870 -0.225849 5.543679
v -0.924033 -0.225849 -5.543679
v -0.924034 -0.225849 5.543679
v -1.033952 0.250674 -5.543679
v -1.033952 0.250674 5.543679
v -0.619551 -0.024637 -5.543679
v -0.626735 -0.055780 -5.543679
v -0.626735 -0.055780 5.543679
v -0.577817 0.156293 -5.543678
v -0.619552 -0.024637 5.543679
v -0.577817 0.156292 5.543679
v -0.181686 0.156293 -5.543678
v -0.159684 0.060909 -5.543679
v -0.181686 0.156292 5.543679
v -0.132767 -0.055780 -5.543679
v -0.132767 -0.055780 5.543679
v -0.159684 0.060909 5.543679
v -0.489669 -0.225849 -5.543679
v -0.489669 -0.225849 5.543680
v -0.269833 -0.225849 -5.543679
v -0.269833 -0.225849 5.543680
v -0.379751 0.250674 -5.543679
v -0.379751 0.250674 5.543678
v 0.137021 0.116104 -5.543679
v 0.097373 -0.055780 -5.543679
v 0.097373 -0.055780 5.543679
v 0.146291 0.156293 -5.543678
v 0.137021 0.116103 5.543679
v 0.146291 0.156292 5.543677
v 0.542423 0.156293 -5.543679
v 0.542423 0.156292 5.543680
v 0.591341 -0.055780 -5.543679
v 0.591341 -0.055780 5.543679
v 0.234439 -0.225849 -5.543678
v 0.234439 -0.225849 5.543679
v 0.454275 -0.225849 -5.543679
v 0.454275 -0.225849 5.543679
v 0.489256 0.181627 5.543679
v 0.489256 0.181627 -5.543679
v 0.344357 0.250674 -5.543678
v 0.344357 0.250674 5.543677
v 0.745345 -0.055780 5.543679
v 0.745345 -0.055780 -5.543679
v 0.794263 0.156293 -5.543679
v 0.794263 0.156292 5.543680
v 1.190395 0.156292 5.543679
v 1.190395 0.156293 -5.543679
v 1.239313 -0.055780 5.543679
v 1.239313 -0.055780 -5.543679
v 0.882411 -0.225849 5.543679
v 0.882411 -0.225849 -5.543679
v 1.102247 -0.225849 5.543679
v 1.102247 -0.225849 -5.543679
v 0.992329 0.250674 -5.543679
v 0.992329 0.250674 5.543680
vt 0.625000 0.500000
vt 0.875000 0.500000
vt 0.875000 0.750000
vt 0.625000 0.750000
vt 0.375000 0.750000
vt 0.625000 1.000000
vt 0.375000 1.000000
vt 0.375000 0.000000
vt 0.625000 0.000000
vt 0.625000 0.250000
vt 0.375000 0.250000
vt 0.367224 0.507776
vt 0.367224 0.742224
vt 0.367224 0.742224
vt 0.367224 0.507776
vt 0.375000 0.500000
vt 0.132776 0.507776
vt 0.132776 0.742224
vt 0.125000 0.750000
vt 0.125000 0.500000
vt 0.132776 0.507776
vt 0.132776 0.742224
vt 0.353654 0.507776
vt 0.342190 0.507776
vt 0.323803 0.507776
vt 0.312339 0.507776
vt 0.299459 0.507776
vt 0.287995 0.507776
vt 0.269608 0.507776
vt 0.258144 0.507776
vt 0.261460 0.507776
vt 0.236644 0.507776
vt 0.238896 0.507776
vt 0.227432 0.507776
vt 0.209045 0.507776
vt 0.197581 0.507776
vt 0.198182 0.507776
vt 0.184179 0.507776
vt 0.172716 0.507776
vt 0.154329 0.507776
vt 0.142865 0.507776
vt 0.142865 0.742224
vt 0.154329 0.742224
vt 0.172716 0.742224
vt 0.184179 0.742224
vt 0.198182 0.742224
vt 0.197581 0.742224
vt 0.209045 0.742224
vt 0.227432 0.742223
vt 0.238896 0.742224
vt 0.236644 0.742224
vt 0.261460 0.742224
vt 0.258144 0.742224
vt 0.269608 0.742224
vt 0.287995 0.742224
vt 0.299459 0.742224
vt 0.312339 0.742224
vt 0.323803 0.742224
vt 0.342190 0.742223
vt 0.353654 0.742224
vt 0.146956 0.507776
vt 0.163522 0.507776
vt 0.180088 0.507776
vt 0.201672 0.507776
vt 0.218238 0.507776
vt 0.234804 0.507776
vt 0.262236 0.507776
vt 0.278801 0.507776
vt 0.290920 0.507776
vt 0.290920 0.742224
vt 0.278801 0.742224
vt 0.262236 0.742224
vt 0.234804 0.742224
vt 0.218238 0.742224
vt 0.201673 0.742224
vt 0.180088 0.742224
vt 0.163522 0.742224
vt 0.146956 0.742223
vt 0.316431 0.507776
vt 0.332997 0.507776
vt 0.349562 0.507776
vt 0.295367 0.507776
vt 0.349562 0.742224
vt 0.332997 0.742224
vt 0.316431 0.742224
vt 0.295367 0.742224
vt 0.000000 0.505132
vt 0.142857 0.505132
vt 0.142857 0.994868
vt 0.000000 0.994868
vt 0.714286 0.505132
vt 0.857143 0.505132
vt 0.857143 0.994868
vt 0.714286 0.994868
vt 0.285714 0.505132
vt 0.285714 0.994868
vt 0.571429 0.505132
vt 0.571429 0.994868
vt 0.428571 0.505132
vt 0.428571 0.994868
vt 1.000000 0.505132
vt 1.000000 0.994868
vt 0.000000 0.505132
vt 0.142857 0.505132
vt 0.142857 0.994868
vt 0.000000 0.994868
vt 0.714286 0.505132
vt 0.792891 0.505132
vt 0.857143 0.505132
vt 0.857143 0.994868
vt 0.792891 0.994868
vt 0.714286 0.994868
vt 0.264735 0.505132
vt 0.285714 0.505132
vt 0.285714 0.994868
vt 0.264735 0.994868
vt 0.571429 0.505132
vt 0.571429 0.994868
vt 0.428571 0.505132
vt 0.428571 0.994868
vt 1.000000 0.505132
vt 1.000000 0.994868
vt 0.000000 0.505132
vt 0.142857 0.505132
vt 0.142857 0.994868
vt 0.000000 0.994868
vt 0.714286 0.505132
vt 0.857143 0.505132
vt 0.857143 0.994868
vt 0.714286 0.994868
vt 0.169930 0.505132
vt 0.285714 0.505132
vt 0.285714 0.994868
vt 0.169929 0.994867
vt 0.571429 0.505132
vt 0.571429 0.994868
vt 0.428571 0.505132
vt 0.428571 0.994868
vt 0.895490 0.505132
vt 1.000000 0.505132
vt 1.000000 0.994868
vt 0.895490 0.994868
vt 0.000000 0.505132
vt 0.142857 0.505132
vt 0.142857 0.994868
vt 0.000000 0.994868
vt 0.714286 0.505132
vt 0.857143 0.505132
vt 0.857143 0.994868
vt 0.714286 0.994868
vt 0.285714 0.505132
vt 0.285714 0.994868
vt 0.571429 0.505132
vt 0.571429 0.994868
vt 0.428571 0.505132
vt 0.428571 0.994868
vt 1.000000 0.505132
vt 1.000000 0.994868
vn 0.0000 1.0000 0.0000
vn 0.0000 0.0000 1.0000
vn -1.0000 0.0000 0.0000
vn 1.0000 0.0000 0.0000
vn 0.0000 0.0000 -1.0000
vn 0.0000 -1.0000 0.0000
vn -0.4302 0.9027 0.0000
vn 0.9744 0.2248 0.0000
vn -0.9744 0.2248 0.0000
vn 0.7786 -0.6275 -0.0000
vn 0.4302 0.9027 0.0000
vn -0.7786 -0.6275 -0.0000
g Cube_Cube_Material
usemtl Material
s off
f 1/1/1 5/2/1 7/3/1 3/4/1
f 12/5/2 3/4/2 7/6/2 10/7/2
f 10/8/3 7/9/3 5/10/3 9/11/3
f 2/12/3 4/13/3 16/14/3 15/15/3
f 11/16/4 1/1/4 3/4/4 12/5/4
f 9/11/5 5/10/5 1/1/5 11/16/5
f 6/17/6 8/18/6 10/19/6 9/20/6
f 2/12/6 6/17/6 9/20/6 11/16/6
f 8/18/6 4/13/6 12/5/6 10/19/6
f 4/13/6 2/12/6 11/16/6 12/5/6
f 13/21/6 15/15/6 16/14/6 14/22/6
f 6/17/2 2/12/2 15/15/2 74/23/2 78/24/2 76/25/2 68/26/2 57/27/2 61/28/2 59/29/2 50/30/2 49/31/2 38/32/2 40/33/2 45/34/2 43/35/2 32/36/2 31/37/2 23/38/2 27/39/2 25/40/2 17/41/2 13/21/2
f 4/13/5 8/18/5 14/22/5 18/42/5 26/43/5 28/44/5 24/45/5 35/46/5 33/47/5 44/48/5 46/49/5 41/50/5 42/51/5 53/52/5 51/53/5 60/54/5 62/55/5 58/56/5 67/57/5 75/58/5 77/59/5 73/60/5 16/14/5
f 8/18/4 6/17/4 13/21/4 14/22/4
f 13/21/2 17/41/2 19/61/2 29/62/2 21/63/2 23/38/2 31/37/2 34/64/2 47/65/2 37/66/2 38/32/2 49/31/2 52/67/2 65/68/2 64/69/2 15/15/2
f 16/14/5 63/70/5 66/71/5 54/72/5 53/52/5 42/51/5 39/73/5 48/74/5 36/75/5 35/46/5 24/45/5 22/76/5 30/77/5 20/78/5 18/42/5 14/22/5
f 57/27/2 68/26/2 69/79/2 79/80/2 72/81/2 74/23/2 15/15/2 64/69/2 55/82/2
f 16/14/5 73/60/5 71/83/5 80/84/5 70/85/5 67/57/5 58/56/5 56/86/5 63/70/5
g Cube_Cube_Material.001
usemtl Material.001
f 29/87/7 19/88/7 20/89/7 30/90/7
f 23/91/8 21/92/8 22/93/8 24/94/8
f 19/88/9 17/95/9 18/96/9 20/89/9
f 27/97/10 23/91/10 24/94/10 28/98/10
f 25/99/6 27/97/6 28/98/6 26/100/6
f 21/92/11 29/101/11 30/102/11 22/93/11
f 17/95/12 25/99/12 26/100/12 18/96/12
f 47/103/7 34/104/7 36/105/7 48/106/7
f 40/107/8 38/108/8 37/109/8 39/110/8 42/111/8 41/112/8
f 34/104/9 31/113/9 32/114/9 33/115/9 35/116/9 36/105/9
f 45/117/10 40/107/10 41/112/10 46/118/10
f 43/119/6 45/117/6 46/118/6 44/120/6
f 37/109/11 47/121/11 48/122/11 39/110/11
f 32/114/12 43/119/12 44/120/12 33/115/12
f 65/123/7 52/124/7 54/125/7 66/126/7
f 57/127/8 55/128/8 56/129/8 58/130/8
f 52/124/9 49/131/9 50/132/9 51/133/9 53/134/9 54/125/9
f 61/135/10 57/127/10 58/130/10 62/136/10
f 59/137/6 61/135/6 62/136/6 60/138/6
f 55/128/11 64/139/11 65/140/11 66/141/11 63/142/11 56/129/11
f 50/132/12 59/137/12 60/138/12 51/133/12
f 79/143/7 69/144/7 70/145/7 80/146/7
f 74/147/8 72/148/8 71/149/8 73/150/8
f 69/144/9 68/151/9 67/152/9 70/145/9
f 78/153/10 74/147/10 73/150/10 77/154/10
f 76/155/6 78/153/6 77/154/6 75/156/6
f 72/148/11 79/157/11 80/158/11 71/149/11
f 68/151/12 76/155/12 75/156/12 67/152/12
