# Blender v2.81 (sub 16) OBJ File: 'bouteilles.blend'
# www.blender.org
mtllib livreopen.mtl
v -1.000000 -0.046096 1.000000
v -1.000000 -0.046096 -1.000000
v 1.000000 -0.046096 1.000000
v 1.000000 -0.046096 -1.000000
v -1.000000 -0.096403 0.000000
v 1.000000 -0.096403 0.000000
v -1.000000 0.023521 0.500000
v 1.000000 0.023521 0.500000
v 1.000000 0.023521 -0.500000
v -1.000000 0.023521 -0.500000
v -0.948010 -0.004772 0.948010
v -0.948010 -0.004772 -0.948010
v 0.948010 -0.004772 -0.948010
v -0.948010 -0.054306 0.000000
v -0.948010 0.064845 0.474005
v 0.948010 0.064845 -0.474005
v -0.948010 0.064845 -0.474005
v 1.000000 0.055662 0.500000
v -0.880463 0.053389 0.910208
v -0.948010 0.037879 0.948010
v -0.914236 0.049278 0.929109
v -0.938960 0.043601 0.942945
v -0.880463 0.053389 -0.910208
v -0.948010 0.037879 -0.948010
v -0.914236 0.049278 -0.929109
v -0.938960 0.043601 -0.942945
v 0.880463 0.053389 0.910208
v 0.948010 0.037879 0.948010
v 0.914236 0.049278 0.929109
v 0.938960 0.043601 0.942945
v 0.880463 0.053389 -0.910208
v 0.948010 0.037879 -0.948010
v 0.914236 0.049278 -0.929109
v 0.938960 0.043601 -0.942945
v -0.880463 -0.001698 0.000000
v -0.948010 -0.012298 0.000000
v -0.914236 -0.003118 0.000000
v -0.938960 -0.006998 0.000000
v 0.880463 -0.001698 0.000000
v 0.948010 -0.012298 0.000000
v 0.914236 -0.003118 0.000000
v 0.938960 -0.006998 0.000000
v 0.948010 0.107160 0.474005
v 0.880463 0.117454 0.474005
v 0.938960 0.112307 0.474005
v 0.914236 0.116074 0.474005
v -0.948010 0.107160 0.474005
v -0.880463 0.117454 0.474005
v -0.938960 0.112307 0.474005
v -0.914236 0.116074 0.474005
v -0.948010 0.107160 -0.474005
v -0.880463 0.117454 -0.474005
v -0.938960 0.112307 -0.474005
v -0.914236 0.116074 -0.474005
v 0.948010 0.107160 -0.474005
v 0.880463 0.117454 -0.474005
v 0.938960 0.112307 -0.474005
v 0.914236 0.116074 -0.474005
v 0.902690 -0.004772 0.948010
v 0.979939 -0.003488 0.932799
v 0.929628 -0.004600 0.945972
v 0.957903 -0.004130 0.940404
v 0.982225 -0.054608 0.024147
v 0.948010 -0.050106 -0.016710
v 0.965118 -0.053894 0.009835
v 0.952594 -0.052246 -0.005120
v 0.948010 0.072971 0.474005
v 0.975809 0.059935 0.487905
v 0.951734 0.068251 0.475867
v 0.961910 0.063479 0.480955
v -0.974854 -0.009513 -0.974854
v -1.000000 -0.019328 -1.000000
v -0.987427 -0.012454 -0.987427
v -0.996631 -0.016046 -0.996631
v 0.974818 -0.009507 -0.974818
v 1.000000 -0.019335 -1.000000
v 0.987409 -0.012452 -0.987409
v 0.996626 -0.016049 -0.996626
v 0.931069 -0.009760 0.976254
v 1.062030 -0.018550 1.006810
v 0.973845 -0.012473 0.989039
v 1.021780 -0.015691 1.000224
v 1.000000 -0.064894 0.004143
v 0.972128 -0.054614 -0.017484
v 0.996266 -0.063185 -0.000271
v 0.986064 -0.059422 -0.008187
v -0.972680 -0.058901 0.000000
v -1.000000 -0.069544 0.000000
v -0.986340 -0.062189 0.000000
v -0.996340 -0.066085 0.000000
v -1.000000 0.050390 0.500000
v -0.978142 0.059523 0.489071
v -0.997072 0.053544 0.498536
v -0.989071 0.056886 0.494536
v 1.000000 0.050105 -0.500000
v 0.977490 0.059638 -0.488745
v 0.996984 0.053416 -0.498492
v 0.988745 0.056906 -0.494373
v -1.000000 0.050157 -0.500000
v -0.977770 0.059589 -0.488885
v -0.997022 0.053436 -0.498511
v -0.988885 0.056888 -0.494443
v -0.976040 -0.009723 0.976040
v -1.000000 -0.018979 1.000000
v -0.988020 -0.012512 0.988020
v -0.996790 -0.015900 0.996790
vt 0.427083 0.187500
vt 0.586274 0.187500
vt 0.587537 0.250000
vt 0.427083 0.250000
vt 0.427083 0.500000
vt 0.587537 0.500000
vt 0.586274 0.562500
vt 0.427083 0.562500
vt 0.427083 0.125000
vt 0.585122 0.125000
vt 0.427083 0.062500
vt 0.586274 0.062500
vt 0.585122 0.625000
vt 0.427083 0.622797
vt 0.458688 0.622797
vt 0.586274 0.687500
vt 0.457654 0.687500
vt 0.587537 0.750000
vt 0.427083 0.750000
vt 0.427083 0.755976
vt 0.587537 1.000000
vt 0.427083 1.000000
vt 0.866094 0.562500
vt 0.866094 0.504984
vt 0.870547 0.501670
vt 0.870547 0.561650
vt 0.875000 0.500000
vt 0.875000 0.559326
vt 0.605637 0.187500
vt 0.606269 0.249332
vt 0.633906 0.504984
vt 0.629453 0.501670
vt 0.626193 0.500000
vt 0.873807 0.500000
vt 0.609067 0.251193
vt 0.609067 0.498807
vt 0.633906 0.687500
vt 0.633906 0.745016
vt 0.629453 0.748330
vt 0.629453 0.687612
vt 0.606269 0.749332
vt 0.605637 0.687500
vt 0.866094 0.745016
vt 0.870547 0.748330
vt 0.873807 0.750000
vt 0.626193 0.750000
vt 0.609067 0.751193
vt 0.609067 0.998807
vt 0.866094 0.687500
vt 0.866094 0.625000
vt 0.870547 0.624355
vt 0.870547 0.686874
vt 0.875000 0.625000
vt 0.875000 0.685164
vt 0.605637 0.062500
vt 0.605061 0.125000
vt 0.633906 0.562500
vt 0.633906 0.625000
vt 0.629453 0.625000
vt 0.629453 0.562388
vt 0.605061 0.625000
vt 0.605637 0.562500
vt 0.870547 0.688350
vt 0.875000 0.690674
vt 0.875000 0.750000
vt 0.606268 0.000668
vt 0.587537 0.000000
vt 0.870547 0.563126
vt 0.870547 0.625645
vt 0.875000 0.564836
vt 0.606268 0.500668
vt 0.427083 0.000000
vt 0.415509 0.687500
vt 0.420895 0.687500
vt 0.420125 0.743977
vt 0.401310 0.743788
vt 0.125000 0.687500
vt 0.375000 0.687500
vt 0.375000 0.750000
vt 0.125000 0.750000
vt 0.125000 0.562500
vt 0.375000 0.562500
vt 0.375000 0.625000
vt 0.125000 0.625000
vt 0.375000 0.250000
vt 0.408737 0.250000
vt 0.408728 0.500000
vt 0.375000 0.500000
vt 0.420520 0.562500
vt 0.421698 0.622804
vt 0.414625 0.624995
vt 0.419589 0.628107
vt 0.125000 0.500000
vt 0.420375 0.062500
vt 0.421591 0.125000
vt 0.409717 0.742246
vt 0.409176 1.000000
vt 0.375000 1.000000
vt 0.375000 0.000000
vt 0.409176 0.000000
vt 0.408865 0.062500
vt 0.375000 0.062500
vt 0.420458 0.187500
vt 0.421107 0.250000
vt 0.408505 0.562500
vt 0.421115 0.500000
vt 0.375000 0.187500
vt 0.408571 0.187500
vt 0.413135 0.625518
vt 0.410912 0.750851
vt 0.375000 0.125000
vt 0.408566 0.125000
vt 0.420843 0.000000
vt 0.415619 0.625518
vt 0.439528 0.687746
vt 0.433248 0.624101
vt 0.424415 0.687477
vt 0.423849 0.626576
vt 0.426981 0.751005
vt 0.424840 0.747803
vt 0.420796 0.755740
vt 0.417514 0.752166
vt 0.411809 0.747457
vt 0.416428 0.624989
vt 0.418614 0.623972
vt 0.417792 0.250299
vt 0.417695 0.187516
vt 0.412578 0.250000
vt 0.412797 0.187314
vt 0.417795 0.499701
vt 0.412574 0.500000
vt 0.420843 1.000000
vt 0.417531 0.999633
vt 0.413057 0.999599
vt 0.417723 0.562484
vt 0.412773 0.562688
vt 0.418197 0.125000
vt 0.417666 0.062485
vt 0.412890 0.125000
vt 0.412931 0.062683
vt 0.417855 -0.000192
vt 0.412494 0.000401
vt 0.410057 -0.437076
vt 0.425904 1.313625
vt 0.308263 1.317550
vt 0.292417 -0.433150
vt 0.783369 -0.449532
vt 0.799215 1.301168
vt 0.681575 1.305094
vt 0.665728 -0.445607
vt 0.553739 1.309359
vt 0.537893 -0.441341
vn -0.8093 0.5842 0.0607
vn -0.8370 0.5463 0.0292
vn -0.6475 0.4007 -0.6482
vn -0.2925 0.8557 -0.4267
vn 0.2925 0.8557 -0.4267
vn 0.6475 0.4007 -0.6482
vn 0.8370 0.5463 0.0292
vn 0.8100 0.5833 0.0606
vn -0.7454 0.6666 0.0000
vn -0.8997 0.4364 0.0000
vn -0.8093 0.5842 -0.0607
vn -0.8370 0.5463 -0.0292
vn 0.8997 0.4364 0.0000
vn 0.7727 0.6276 0.0943
vn 0.8898 0.4541 -0.0439
vn 0.9623 0.2708 -0.0253
vn 0.8020 0.2183 0.5560
vn 0.2745 0.7454 0.6075
vn -0.6475 0.4007 0.6482
vn -0.2923 0.8558 0.4267
vn -0.0203 0.9985 0.0501
vn -0.0132 0.9847 -0.1734
vn -0.0563 0.9667 -0.2496
vn -0.0950 0.9942 0.0497
vn -0.2063 0.8770 -0.4339
vn -0.3206 0.9460 0.0468
vn 0.0132 0.9847 -0.1734
vn 0.0563 0.9667 -0.2496
vn 0.2063 0.8770 -0.4339
vn 0.0203 0.9985 -0.0501
vn 0.0132 0.9847 0.1734
vn 0.0563 0.9667 0.2496
vn 0.0950 0.9942 -0.0497
vn 0.2063 0.8770 0.4339
vn 0.3206 0.9460 -0.0468
vn -0.0132 0.9847 0.1734
vn -0.0563 0.9667 0.2496
vn -0.2063 0.8770 0.4339
vn -0.0203 0.9985 -0.0501
vn -0.0208 0.9998 0.0000
vn -0.0981 0.9951 0.0000
vn -0.0950 0.9942 -0.0497
vn -0.3414 0.9399 0.0000
vn -0.3206 0.9460 -0.0468
vn 0.0203 0.9985 0.0501
vn 0.0208 0.9998 0.0000
vn 0.0981 0.9951 0.0000
vn 0.0950 0.9942 0.0497
vn 0.3414 0.9399 0.0000
vn 0.3206 0.9460 0.0468
vn 0.7817 0.6218 -0.0474
vn 0.1842 0.9819 -0.0445
vn 0.0623 0.9874 0.1452
vn 0.8644 0.2934 0.4082
vn -0.7514 -0.6590 0.0320
vn 0.5722 -0.8199 -0.0183
vn 0.2842 -0.7700 0.5713
vn -0.5458 -0.6644 0.5105
vn -0.7514 -0.6590 -0.0320
vn 0.7514 -0.6590 -0.0320
vn 0.6582 -0.7528 0.0000
vn -0.6582 -0.7528 0.0000
vn -0.5704 -0.6195 -0.5392
vn -0.6518 0.3717 -0.6610
vn 0.6518 0.3718 -0.6610
vn 0.5704 -0.6195 -0.5392
vn 0.1704 0.9843 0.0450
vn 0.2291 0.9538 0.1944
vn 0.8583 0.5098 -0.0584
vn 0.2792 0.9359 -0.2146
vn -0.1784 0.9829 -0.0448
vn -0.2632 0.9647 0.0000
vn -0.6778 0.3696 0.6356
vn -0.9033 0.4289 -0.0047
vn -0.1789 0.9828 0.0447
vn -0.0565 0.9825 -0.1776
vn 0.8806 0.4736 0.0121
vn 0.0566 0.9825 -0.1776
vn -0.9051 0.4251 0.0048
vn -0.9473 0.3203 -0.0002
vn -0.0563 0.9832 0.1735
vn 0.3896 0.9207 -0.0228
vn 0.5032 0.8625 -0.0544
vn 0.2307 0.9722 -0.0404
vn 0.3303 0.9319 -0.1495
vn 0.0703 0.9841 0.1631
vn 0.0625 0.9861 0.1541
vn 0.0042 0.9816 0.1908
vn 0.0104 0.9716 0.2362
vn 0.0169 0.9397 0.3416
vn 0.3846 0.9218 0.0479
vn 0.2691 0.9551 0.1240
vn -0.1245 0.9640 -0.2350
vn -0.2752 0.9605 0.0405
vn -0.3208 0.8616 -0.3933
vn -0.5235 0.8516 0.0259
vn 0.1246 0.9640 -0.2350
vn 0.3207 0.8617 -0.3933
vn -0.1230 0.9689 0.2147
vn -0.3104 0.8990 0.3089
vn 0.2407 0.9697 0.0421
vn 0.4458 0.8944 0.0351
vn -0.3536 0.9354 -0.0001
vn -0.2733 0.9611 -0.0407
vn -0.5959 0.8031 -0.0004
vn -0.5192 0.8542 -0.0264
g Cube_Cube_Material.002
usemtl Material.002
s 1
f 17/1/1 51/2/2 24/3/3 12/4/4
f 13/5/5 32/6/6 55/7/7 16/8/8
f 14/9/9 36/10/10 51/2/2 17/1/1
f 12/4/4 24/3/3 32/6/6 13/5/5
f 15/11/11 47/12/12 36/10/10 14/9/9
f 16/8/8 55/7/7 40/13/13 64/14/14
f 64/15/14 40/13/13 43/16/15 67/17/16
f 67/17/16 43/16/15 28/18/17 59/19/18
f 59/20/18 28/18/17 20/21/19 11/22/20
f 52/23/21 23/24/22 25/25/23 54/26/24
f 54/26/24 25/25/23 26/27/25 53/28/26
f 53/29/26 26/30/25 24/3/3 51/2/2
f 23/24/22 31/31/27 33/32/28 25/25/23
f 25/25/23 33/32/28 34/33/29 26/34/25
f 26/35/25 34/36/29 32/6/6 24/3/3
f 44/37/30 27/38/31 29/39/32 46/40/33
f 46/40/33 29/39/32 30/41/34 45/42/35
f 45/42/35 30/41/34 28/18/17 43/16/15
f 27/38/31 19/43/36 21/44/37 29/39/32
f 29/39/32 21/44/37 22/45/38 30/46/34
f 30/47/34 22/48/38 20/21/19 28/18/17
f 48/49/39 35/50/40 37/51/41 50/52/42
f 50/52/42 37/51/41 38/53/43 49/54/44
f 49/55/44 38/56/43 36/10/10 47/12/12
f 56/57/45 39/58/46 41/59/47 58/60/48
f 58/60/48 41/59/47 42/61/49 57/62/50
f 57/62/50 42/61/49 40/13/13 55/7/7
f 39/58/46 44/37/30 46/40/33 41/59/47
f 41/59/47 46/40/33 45/42/35 42/61/49
f 42/61/49 45/42/35 43/16/15 40/13/13
f 19/43/36 48/49/39 50/63/42 21/44/37
f 21/44/37 50/63/42 49/64/44 22/65/38
f 22/66/38 49/55/44 47/12/12 20/67/19
f 35/50/40 52/23/21 54/68/24 37/69/41
f 37/69/41 54/68/24 53/70/26 38/53/43
f 38/56/43 53/29/26 51/2/2 36/10/10
f 31/31/27 56/57/45 58/60/48 33/32/28
f 33/32/28 58/60/48 57/62/50 34/71/29
f 34/71/29 57/62/50 55/7/7 32/6/6
f 11/72/20 20/67/19 47/12/12 15/11/11
g Cube_Cube_Material.003
usemtl Material.003
f 18/73/51 68/74/52 60/75/53 80/76/54
f 7/77/55 8/78/56 3/79/57 1/80/58
f 10/81/59 9/82/60 6/83/61 5/84/62
f 2/85/63 72/86/64 76/87/65 4/88/66
f 96/89/67 16/8/8 64/14/14 84/90/68
f 83/91/69 63/92/70 68/74/52 18/73/51
f 5/84/62 6/83/61 8/78/56 7/77/55
f 2/93/63 4/88/66 9/82/60 10/81/59
f 92/94/71 15/11/11 14/9/9 87/95/72
f 3/79/57 80/96/54 104/97/73 1/98/58
f 1/99/58 104/100/73 91/101/74 7/102/55
f 100/103/75 17/1/1 12/4/4 71/104/76
f 4/88/66 76/87/65 95/105/77 9/82/60
f 71/104/76 12/4/4 13/5/5 75/106/78
f 10/107/59 99/108/79 72/86/64 2/85/63
f 6/83/61 83/109/69 18/73/51 8/78/56
f 8/78/56 18/73/51 80/110/54 3/79/57
f 5/111/62 88/112/80 99/108/79 10/107/59
f 87/95/72 14/9/9 17/1/1 100/103/75
f 103/113/81 11/72/20 15/11/11 92/94/71
f 9/82/60 95/105/77 83/114/69 6/83/61
f 75/106/78 13/5/5 16/8/8 96/89/67
f 7/102/55 91/101/74 88/112/80 5/111/62
f 64/15/14 67/17/16 69/115/82 66/116/83
f 66/116/83 69/115/82 70/117/84 65/118/85
f 65/118/85 70/117/84 68/74/52 63/92/70
f 67/17/16 59/19/18 61/119/86 69/115/82
f 69/115/82 61/119/86 62/120/87 70/117/84
f 70/117/84 62/120/87 60/75/53 68/74/52
f 59/20/18 79/121/88 81/122/89 61/119/86
f 61/119/86 81/122/89 82/123/90 62/120/87
f 62/120/87 82/123/90 80/76/54 60/75/53
f 63/92/70 83/91/69 85/124/91 65/118/85
f 65/118/85 85/124/91 86/125/92 66/116/83
f 66/116/83 86/125/92 84/90/68 64/14/14
f 100/103/75 71/104/76 73/126/93 102/127/94
f 102/127/94 73/126/93 74/128/95 101/129/96
f 101/129/96 74/128/95 72/86/64 99/108/79
f 71/104/76 75/106/78 77/130/97 73/126/93
f 73/126/93 77/130/97 78/131/98 74/128/95
f 74/128/95 78/131/98 76/87/65 72/86/64
f 79/121/88 103/132/81 105/133/99 81/122/89
f 81/122/89 105/133/99 106/134/100 82/123/90
f 82/123/90 106/134/100 104/97/73 80/96/54
f 96/89/67 84/90/68 86/125/92 98/135/101
f 98/135/101 86/125/92 85/124/91 97/136/102
f 97/136/102 85/124/91 83/114/69 95/105/77
f 92/94/71 87/95/72 89/137/103 94/138/104
f 94/138/104 89/137/103 90/139/105 93/140/106
f 93/140/106 90/139/105 88/112/80 91/101/74
f 103/113/81 92/94/71 94/138/104 105/141/99
f 105/141/99 94/138/104 93/140/106 106/142/100
f 106/142/100 93/140/106 91/101/74 104/100/73
f 75/106/78 96/89/67 98/135/101 77/130/97
f 77/130/97 98/135/101 97/136/102 78/131/98
f 78/131/98 97/136/102 95/105/77 76/87/65
f 87/95/72 100/103/75 102/127/94 89/137/103
f 89/137/103 102/127/94 101/129/96 90/139/105
f 90/139/105 101/129/96 99/108/79 88/112/80
f 79/121/88 59/20/18 11/22/20 103/132/81
g Cube_Cube_Material.004
usemtl Material.004
f 44/143/30 48/144/39 19/145/36 27/146/31
f 31/147/27 23/148/22 52/149/21 56/150/45
f 56/150/45 52/149/21 35/151/40 39/152/46
f 39/152/46 35/151/40 48/144/39 44/143/30
