# Blender MTL File: 'pefpef.blend'
# Material Count: 2

newmtl Material.003
Ns 225.000000
Ka 1.000000 1.000000 1.000000
Kd 0.800000 0.800000 0.800000
Ks 0.500000 0.500000 0.500000
Ke 0.000000 0.000000 0.000000
Ni 1.450000
d 1.000000
illum 2

newmtl Material.014
Ns 225.000000
Ka 1.000000 1.000000 1.000000
Kd 0.332768 0.057058 0.016357
Ks 0.500000 0.500000 0.500000
Ke 0.000000 0.000000 0.000000
Ni 1.450000
d 1.000000
illum 2
