# Blender v2.81 (sub 16) OBJ File: 'pefpef.blend'
# www.blender.org
mtllib piedestal.mtl
v -4.481442 -2.776232 25.503723
v -4.481442 -2.765634 -25.503723
v 4.481442 -2.779400 25.503723
v 4.481442 -2.766044 -25.503723
v -4.481442 -2.790075 -15.959691
v 4.481442 2.568660 -15.959691
v 4.481442 -2.793574 -15.959691
v -4.481442 -1.225892 25.503723
v -4.481442 -1.212272 -25.503723
v 4.481442 -1.212828 -25.503723
v 4.481442 -1.229704 25.503723
v 4.481442 -1.245672 -15.959691
v -4.481442 -1.241879 -15.959691
v -13.232080 -2.741801 -15.959691
v -13.232080 -2.741801 -25.503723
v -4.481442 0.674504 -25.503723
v 4.481442 0.673981 -25.503723
v 4.481442 0.681406 25.503723
v 4.481442 0.646955 -15.959691
v -4.481442 0.649687 -15.959691
v -4.481442 0.663562 25.503723
v -8.689547 -1.169787 -15.959691
v -8.689547 -1.152957 -25.503723
v 4.481442 -2.793574 23.171070
v -4.481442 -2.790075 23.171070
v 4.481442 2.568660 23.171070
v -4.481442 -1.241879 23.171070
v 4.481442 -1.245672 23.171070
v 4.481442 0.646955 23.171070
v -4.481442 0.649688 23.171070
v -2.480336 -2.766044 -25.503723
v -2.480336 -2.765790 25.503723
v -2.480336 -2.759018 -15.959691
v -2.480336 2.568660 -15.959691
v -2.480336 -1.212484 25.503723
v -2.480336 -1.212828 -25.503723
v -2.480336 0.673981 -25.503723
v -2.480336 0.681406 25.503723
v -2.480336 -2.759018 23.171070
v -2.480336 2.568660 23.171070
v 2.640646 -2.766044 -25.503723
v 2.640646 -2.763637 -15.959691
v 2.640646 -1.212828 -25.503723
v 2.640646 0.673981 -25.503723
v 2.640646 -2.763637 23.171070
v 2.640646 -2.769589 25.503723
v 2.640646 2.568660 -15.959691
v 2.640646 -1.205139 25.503723
v 2.640646 0.681406 25.503723
v 2.640646 2.568660 23.171070
v -4.142320 2.569140 23.573790
v -4.481442 2.376604 25.503723
v -4.311881 2.546206 24.538755
v -4.436008 2.476882 25.245161
v -4.142320 2.568660 -23.573790
v -4.481442 2.372180 -25.503723
v -4.311881 2.543625 -24.538755
v -4.436008 2.472964 -25.245161
v 4.481442 2.376316 25.503723
v 4.481442 2.569140 23.573790
v 4.481442 2.476660 25.245161
v 4.481442 2.546130 24.538755
v 4.481442 2.568660 -23.573790
v 4.481442 2.371885 -25.503723
v 4.481442 2.543544 -24.538755
v 4.481442 2.472737 -25.245161
v -4.142320 2.568660 -15.959691
v -4.481442 2.361944 -15.959691
v -4.311881 2.540955 -15.959691
v -4.436008 2.465273 -15.959691
v -4.481442 2.361944 23.171070
v -4.142320 2.568660 23.171070
v -4.436008 2.465273 23.171070
v -4.311881 2.540955 23.171070
v -2.480336 2.371885 -25.503723
v -2.480336 2.568660 -23.573790
v -2.480336 2.472737 -25.245161
v -2.480336 2.543544 -24.538755
v -2.480336 2.569140 23.573790
v -2.480336 2.376316 25.503723
v -2.480336 2.546130 24.538755
v -2.480336 2.476660 25.245161
v 2.640646 2.376316 25.503723
v 2.640646 2.569140 23.573790
v 2.640646 2.476660 25.245161
v 2.640646 2.546130 24.538755
v 2.640646 2.371885 -25.503723
v 2.640646 2.568660 -23.573790
v 2.640646 2.472737 -25.245161
v 2.640646 2.543544 -24.538755
v -8.177333 0.745776 -25.503723
v -8.689547 0.445917 -25.503723
v -8.433439 0.708565 -25.503723
v -8.620923 0.598370 -25.503723
v -8.689547 0.418532 -15.959691
v -8.177333 0.716863 -15.959691
v -8.620923 0.570402 -15.959691
v -8.433439 0.680085 -15.959691
v -12.765056 -1.146679 -25.503723
v -13.232080 -1.432411 -25.503723
v -12.998567 -1.184960 -25.503723
v -13.169510 -1.289545 -25.503723
v -13.232080 -1.432411 -15.959691
v -12.765056 -1.146679 -15.959691
v -13.169510 -1.289545 -15.959691
v -12.998567 -1.184960 -15.959691
vt 0.232930 0.509817
vt 0.232930 0.015808
vt 0.138254 0.015808
vt 0.138254 0.509817
vt 0.216417 0.911888
vt 0.216417 1.015808
vt 0.073096 1.015808
vt 0.073096 0.911888
vt 0.213387 0.410511
vt 0.214860 0.387371
vt 0.071864 0.387371
vt 0.070556 0.410511
vt 0.216449 0.622787
vt 0.215212 0.509817
vt 0.072156 0.509817
vt 0.073120 0.622787
vt 0.565348 0.410511
vt 0.565393 0.406516
vt 0.563269 0.396944
vt 0.556859 0.389936
vt 0.547600 0.387371
vt 0.391205 0.387371
vt 0.388026 0.410511
vt 0.621105 0.622787
vt 0.644245 0.622787
vt 0.644245 0.509817
vt 0.621105 0.509817
vt 0.138254 0.622787
vt 0.232930 0.622787
vt 0.547191 0.911888
vt 0.547191 1.015808
vt 0.390520 1.015808
vt 0.390520 0.911888
vt 0.216417 0.893362
vt 0.213386 0.798686
vt 0.070556 0.798686
vt 0.073096 0.893362
vt 0.213737 0.410511
vt 0.213736 0.798686
vt 0.070879 0.798686
vt 0.070879 0.410511
vt 0.621105 0.509817
vt 0.232930 0.509817
vt 0.232930 1.015808
vt 0.621105 1.015808
vt 0.390520 0.893362
vt 0.388026 0.798686
vt 0.391205 0.622787
vt 0.389558 0.509817
vt 0.388278 0.509817
vt 0.394477 0.301169
vt 0.391083 0.286711
vt 0.380962 0.276126
vt 0.366948 0.272252
vt 0.220389 0.272252
vt 0.213737 0.509817
vt 0.138254 0.509817
vt 0.138254 0.042173
vt 0.232930 0.042173
vt 0.232930 0.509817
vt 0.222521 0.042173
vt 0.218989 0.028991
vt 0.209338 0.019340
vt 0.196155 0.015808
vt 0.075333 0.015808
vt 0.070879 0.509817
vt 0.196155 0.798686
vt 0.196155 0.893362
vt 0.075333 0.893362
vt 0.075333 0.798686
vt 0.547600 1.015808
vt 0.547600 0.911888
vt 0.391205 0.911888
vt 0.391205 1.015808
vt 0.232930 0.528962
vt 0.621105 0.528962
vt 0.621105 0.622787
vt 0.232930 0.622787
vt 0.565348 0.874218
vt 0.565348 0.798686
vt 0.547191 0.893362
vt 0.556497 0.890797
vt 0.563031 0.883790
vt 0.547218 0.509817
vt 0.547191 0.622787
vt 0.390520 0.622787
vt 0.390568 0.509817
vt 0.157398 0.911888
vt 0.232930 0.911888
vt 0.232930 1.015808
vt 0.157398 1.015808
vt 0.157398 0.622787
vt 0.138254 0.509817
vt 0.138254 0.301169
vt 0.232930 0.301169
vt 0.232930 0.272252
vt 0.138254 0.272252
vt 0.366948 0.798686
vt 0.369475 0.893362
vt 0.221942 0.893362
vt 0.220389 0.798686
vt 0.547600 0.622787
vt 0.547627 0.509817
vt 0.621105 0.509817
vt 0.621105 1.015808
vt 0.232930 1.015808
vt 0.389558 0.387371
vt 0.388278 0.410511
vt 0.215212 0.387371
vt 0.072156 0.387371
vt 0.621105 0.911888
vt 0.621105 1.015808
vt 0.546274 0.410511
vt 0.546274 0.798686
vt 0.388278 0.798686
vt 0.232930 0.911888
vt 0.621105 0.911888
vt 0.625100 0.622787
vt 0.625100 0.911888
vt 0.157398 0.528962
vt 0.216417 0.622787
vt 0.216468 0.509817
vt 0.217127 0.911888
vt 0.547218 0.893362
vt 0.390568 0.893362
vt 0.138254 0.911888
vt 0.644245 0.911888
vt 0.547627 0.387371
vt 0.072769 0.911888
vt 0.073096 0.622787
vt 0.073134 0.509817
vt 0.214860 1.015808
vt 0.071864 1.015808
vt 0.621105 1.015808
vt 0.644245 1.015808
vt 0.138254 1.015808
vt 0.232930 1.015808
vt 0.625100 1.015808
vt 0.388026 1.015808
vt 0.213386 1.015808
vt 0.213737 0.509817
vt 0.388278 0.509817
vt 0.388026 1.015808
vt 0.213386 1.015808
vt 0.621105 0.519389
vt 0.634672 0.519389
vt 0.625100 0.528962
vt 0.621105 0.512382
vt 0.641680 0.512382
vt 0.555808 0.410511
vt 0.556880 0.389936
vt 0.147826 0.622787
vt 0.147826 0.519389
vt 0.140818 0.622787
vt 0.140818 0.512382
vt 0.556497 0.622787
vt 0.556518 0.512382
vt 0.634672 0.911888
vt 0.634672 1.015808
vt 0.641680 0.911888
vt 0.641680 1.015808
vt 0.556859 0.911888
vt 0.556859 1.015808
vt 0.232930 0.519389
vt 0.232930 0.512382
vt 0.556518 0.890797
vt 0.555808 0.798686
vt 0.147826 0.911888
vt 0.140818 0.911888
vt 0.556497 0.911888
vt 0.634672 0.622787
vt 0.641680 0.622787
vt 0.556880 0.512382
vt 0.556859 0.622787
vt 0.147826 1.015808
vt 0.140818 1.015808
vt 0.556497 1.015808
vt 0.380962 0.798686
vt 0.383543 0.893362
vt 0.232930 0.276126
vt 0.232930 0.286711
vt 0.138254 0.286711
vt 0.138254 0.276126
vt 0.221942 0.272252
vt 0.369475 0.272252
vt 0.383543 0.276126
vt 0.393711 0.286711
vt 0.397144 0.301169
vt 0.209338 0.798686
vt 0.209338 0.893362
vt 0.218989 0.798686
vt 0.218989 0.893362
vt 0.232930 0.028991
vt 0.138254 0.028991
vt 0.075333 0.015808
vt 0.196155 0.015808
vt 0.209338 0.019340
vt 0.218989 0.028991
vt 0.222521 0.042173
vn -0.0041 -1.0000 -0.0013
vn 0.0000 0.0000 -1.0000
vn 1.0000 0.0000 0.0000
vn -0.0000 0.0000 1.0000
vn 0.0104 -0.9999 0.0015
vn 0.0077 -1.0000 -0.0009
vn -1.0000 0.0000 0.0000
vn -0.0003 -1.0000 0.0000
vn 0.0097 1.0000 0.0016
vn 0.0000 1.0000 0.0000
vn 0.0187 0.9998 0.0028
vn -0.0156 -0.9999 -0.0024
vn 0.0004 1.0000 0.0000
vn 0.0155 -0.9999 0.0000
vn -0.0009 -1.0000 0.0000
vn 0.0000 1.0000 -0.0012
vn -0.0005 -1.0000 0.0005
vn -0.0008 -1.0000 -0.0027
vn -0.0108 -0.9999 0.0018
vn -0.0081 -1.0000 -0.0013
vn -0.0163 -0.9999 0.0000
vn -0.1566 0.9877 -0.0032
vn -0.5133 0.8582 -0.0042
vn -0.9143 0.4050 -0.0024
vn 0.0000 0.9997 -0.0260
vn 0.0001 0.9950 -0.0996
vn 0.0001 0.9317 -0.3633
vn 0.0000 0.9997 0.0238
vn 0.0000 0.9952 0.0979
vn 0.0000 0.9323 0.3618
vn -0.1541 0.9881 0.0002
vn -0.5089 0.8608 0.0005
vn -0.9137 0.4063 0.0004
vn -0.1613 0.9869 0.0000
vn -0.5206 0.8538 0.0000
vn -0.9154 0.4025 0.0000
vn 0.0000 0.9950 -0.0997
vn 0.0000 0.9316 -0.3634
vn 0.0001 0.9952 0.0978
vn 0.0001 0.9323 0.3617
vn -0.9116 0.4111 0.0012
vn -0.5058 0.8626 0.0026
vn -0.1430 0.9897 0.0030
vn -0.9160 0.4012 0.0000
vn -0.5219 0.8530 0.0000
vn -0.1618 0.9868 0.0000
g Cube.007_Cube.009_Material.007
usemtl Material.007
s off
f 5/1/1 14/2/1 15/3/1 2/4/1
f 43/5/2 10/6/2 4/7/2 41/8/2
f 28/9/3 11/10/3 3/11/3 24/12/3
f 35/13/4 8/14/4 1/15/4 32/16/4
f 26/17/3 60/18/3 62/19/3 61/20/3 59/21/3 18/22/3 29/23/3
f 39/24/5 32/25/5 1/26/5 25/27/5
f 31/28/6 33/29/6 5/1/6 2/4/6
f 87/30/2 64/31/2 17/32/2 44/33/2
f 10/34/3 12/35/3 7/36/3 4/37/3
f 27/38/7 13/39/7 5/40/7 25/41/7
f 30/42/8 20/43/8 19/44/8 29/45/8
f 17/46/3 19/47/3 12/35/3 10/34/3
f 38/48/4 21/49/4 8/14/4 35/13/4
f 29/23/3 18/22/3 11/10/3 28/9/3
f 44/33/2 17/32/2 10/6/2 43/5/2
f 20/50/4 96/51/4 98/52/4 97/53/4 95/54/4 22/55/4 13/56/4
f 9/57/9 99/58/9 104/59/9 13/60/9
f 13/56/4 104/61/4 106/62/4 105/63/4 103/64/4 14/65/4 5/66/4
f 103/67/7 100/68/7 15/69/7 14/70/7
f 59/71/4 83/72/4 49/73/4 18/74/4
f 67/75/10 72/76/10 40/77/10 34/78/10
f 63/79/3 6/80/3 19/47/3 17/46/3 64/81/3 66/82/3 65/83/3
f 56/84/2 75/85/2 37/86/2 16/87/2
f 88/88/10 47/89/10 6/90/10 63/91/10
f 76/92/10 34/78/10 47/89/10 88/88/10
f 16/93/11 91/94/11 96/95/11 20/43/11
f 13/60/12 22/96/12 23/97/12 9/57/12
f 95/98/7 92/99/7 23/100/7 22/101/7
f 80/102/4 52/103/4 21/49/4 38/48/4
f 6/80/3 26/17/3 29/23/3 19/47/3
f 27/104/13 28/105/13 12/106/13 13/60/13
f 21/107/7 30/108/7 27/38/7 8/109/7
f 8/109/7 27/38/7 25/41/7 1/110/7
f 33/29/14 39/24/14 25/27/14 5/1/14
f 47/89/10 50/111/10 26/112/10 6/90/10
f 12/35/3 28/9/3 24/12/3 7/36/3
f 71/113/7 68/114/7 20/115/7 30/108/7
f 42/116/15 45/117/15 39/24/15 33/29/15
f 40/77/16 79/118/16 84/119/16 50/111/16
f 55/120/10 67/75/10 34/78/10 76/92/10
f 16/87/2 37/86/2 36/121/2 9/122/2
f 49/73/4 38/48/4 35/13/4 48/123/4
f 68/114/7 56/124/7 16/125/7 20/115/7
f 41/126/17 42/116/17 33/29/17 31/28/17
f 45/117/18 46/127/18 32/25/18 39/24/18
f 52/128/7 71/113/7 30/108/7 21/107/7
f 48/123/4 35/13/4 32/16/4 46/129/4
f 9/122/2 36/121/2 31/130/2 2/131/2
f 11/132/4 48/123/4 46/129/4 3/133/4
f 24/134/19 3/135/19 46/127/19 45/117/19
f 4/136/20 7/137/20 42/116/20 41/126/20
f 18/74/4 49/73/4 48/123/4 11/132/4
f 50/111/16 84/119/16 60/138/16 26/112/16
f 7/137/21 24/134/21 45/117/21 42/116/21
f 34/78/10 40/77/10 50/111/10 47/89/10
f 83/72/4 80/102/4 38/48/4 49/73/4
f 37/86/2 44/33/2 43/5/2 36/121/2
f 75/85/2 87/30/2 44/33/2 37/86/2
f 36/121/2 43/5/2 41/8/2 31/130/2
f 29/139/2 28/140/2 27/141/2 30/142/2
f 19/143/4 20/50/4 13/56/4 12/144/4
f 72/76/22 74/145/22 53/146/22 51/147/22
f 74/145/23 73/148/23 54/149/23 53/146/23
f 73/150/24 71/113/24 52/128/24 54/151/24
f 76/92/25 78/152/25 57/153/25 55/120/25
f 78/152/26 77/154/26 58/155/26 57/153/26
f 77/156/27 75/85/27 56/84/27 58/157/27
f 84/119/28 86/158/28 62/159/28 60/138/28
f 86/158/29 85/160/29 61/161/29 62/159/29
f 85/162/30 83/72/30 59/71/30 61/163/30
f 55/120/31 57/153/31 69/164/31 67/75/31
f 57/153/32 58/155/32 70/165/32 69/164/32
f 58/166/33 56/124/33 68/114/33 70/167/33
f 67/75/34 69/164/34 74/145/34 72/76/34
f 69/164/35 70/165/35 73/148/35 74/145/35
f 70/167/36 68/114/36 71/113/36 73/150/36
f 88/88/25 90/168/25 78/152/25 76/92/25
f 90/168/37 89/169/37 77/154/37 78/152/37
f 89/170/38 87/30/38 75/85/38 77/156/38
f 51/147/28 53/146/28 81/171/28 79/118/28
f 53/146/39 54/149/39 82/172/39 81/171/39
f 54/173/40 52/103/40 80/102/40 82/174/40
f 79/118/28 81/171/28 86/158/28 84/119/28
f 81/171/29 82/172/29 85/160/29 86/158/29
f 82/174/30 80/102/30 83/72/30 85/162/30
f 63/91/25 65/175/25 90/168/25 88/88/25
f 65/175/37 66/176/37 89/169/37 90/168/37
f 66/177/38 64/31/38 87/30/38 89/170/38
f 72/76/16 51/147/16 79/118/16 40/77/16
f 95/98/41 97/178/41 94/179/41 92/99/41
f 97/180/42 98/181/42 93/182/42 94/183/42
f 98/181/43 96/95/43 91/94/43 93/182/43
f 9/122/2 23/184/2 92/185/2 94/186/2 93/187/2 91/188/2 16/87/2
f 103/67/44 105/189/44 102/190/44 100/68/44
f 105/189/45 106/191/45 101/192/45 102/190/45
f 106/193/46 104/59/46 99/58/46 101/194/46
f 2/131/2 15/195/2 100/196/2 102/197/2 101/198/2 99/199/2 9/122/2
