# Blender MTL File: 'pefpef.blend'
# Material Count: 1

newmtl Material.004
Ns 900.000000
Ka 1.000000 1.000000 1.000000
Kd 0.800000 0.800000 0.800000
Ks 0.000000 0.000000 0.000000
Ke 0.000000 0.000000 0.000000
Ni 1.450000
d 1.000000
illum 1
map_Kd C:\\Users\\than9\\OneDrive\\Documents\\textureCarrelage.png
