# Blender MTL File: 'pefpef.blend'
# Material Count: 4

newmtl Material.011
Ns 0.000000
Ka 1.000000 1.000000 1.000000
Kd 0.000000 0.000000 0.000000
Ks 0.500000 0.500000 0.500000
Ke 0.000000 0.000000 0.000000
Ni 1.450000
d 1.000000
illum 2

newmtl Material.016
Ns 225.000000
Ka 1.000000 1.000000 1.000000
Kd 0.008471 0.000596 0.800000
Ks 0.500000 0.500000 0.500000
Ke 0.000000 0.000000 0.000000
Ni 1.450000
d 1.000000
illum 2

newmtl Material.020
Ns 225.000000
Ka 1.000000 1.000000 1.000000
Kd 0.800000 0.450098 0.295266
Ks 0.500000 0.500000 0.500000
Ke 0.000000 0.000000 0.000000
Ni 1.450000
d 1.000000
illum 2

newmtl Material.021
Ns 664.233448
Ka 0.786364 0.786364 0.786364
Kd 0.800000 0.800000 0.800000
Ks 0.500000 0.500000 0.500000
Ke 1.000000 1.000000 1.000000
Ni 1.450000
d 0.104545
illum 6
